<?xml version="1.0" encoding="UTF-8"?>
<svg xmlns="http://www.w3.org/2000/svg" width="12" height="7" viewBox="0 0 12 7">
  <path d="M9.24729494,8.07592534 C9.5750654,8.39268523 9.5853597,8.91654939 9.27014828,9.24613692 C9.10852779,9.41496518 8.89255341,9.5 8.67637315,9.5 C8.47089895,9.5 8.26542476,9.42344797 8.10565724,9.26910253 L2.75262208,4.09666806 C2.59120748,3.94066743 2.5,3.72508037 2.5,3.49997602 C2.5,3.27507857 2.59120748,3.0594915 2.75262208,2.90349087 L8.10565724,-2.26894359 C8.43342771,-2.58570348 8.95493686,-2.57556551 9.27014828,-2.24597798 C9.5853597,-1.91639046 9.5750654,-1.3925263 9.24729494,-1.07576641 L4.51171179,3.49997602 L9.24729494,8.07592534 Z" transform="rotate(-90 6 3.5)"/>
</svg>
