<svg xmlns="http://www.w3.org/2000/svg" xmlns:xlink="http://www.w3.org/1999/xlink" width="12" height="12"
     viewBox="0 0 12 12">
    <defs>
        <path id="close"
              d="M1310 25.21l-1.21-1.21-4.79 4.79-4.79-4.79-1.21 1.21 4.79 4.79-4.79 4.79 1.21 1.21 4.79-4.79 4.79 4.79 1.21-1.21-4.79-4.79 4.79-4.79"/>
    </defs>
    <g transform="translate(-1298 -24)">
        <use xlink:href="#close"/>
    </g>
</svg>