<?xml version="1.0" encoding="UTF-8"?>
<svg xmlns="http://www.w3.org/2000/svg" width="7" height="10" viewBox="0 0 7 10">
  <path d="M7,8.77427184 C6.90752683,8.79854369 6.81505366,8.83495146 6.71102135,8.8592233 C5.31236469,9.22330097 3.91370803,9.58737864 2.48037393,9.84223301 C1.97177151,9.93932039 1.46316909,10 0.943007523,10 C0.804297772,10 0.665588021,9.97572816 0.526878269,9.95145631 C0.365050226,9.91504854 0.341931934,9.80582524 0.341931934,9.80582524 C0.341931934,9.80582524 0.341931934,9.80582524 0.341931934,9.79368932 C0.341931934,9.7815534 0.341931934,9.7815534 0.341931934,9.76941748 C0.341931934,9.76941748 0.341931934,9.76941748 0.341931934,9.76941748 C0.480641686,8.32524272 0.862093502,6.9538835 1.42849165,5.63106796 C1.89085749,4.53883495 2.45725564,3.51941748 3.19704098,2.59708738 C3.63628853,2.05097087 4.12177266,1.56553398 4.69972996,1.18932039 C4.69972996,1.18932039 4.7112891,1.17718447 4.7112891,1.17718447 C4.72284825,1.16504854 4.73440739,1.1407767 4.72284825,1.12864078 C4.72284825,1.12864078 4.72284825,1.12864078 4.72284825,1.12864078 C4.51478362,1.25 4.30671899,1.3592233 4.11021351,1.49271845 C3.02365379,2.22087379 2.19139529,3.19174757 1.52096482,4.33252427 C1.00080325,5.24271845 0.630910583,6.25 0.365050226,7.2815534 C0.365050226,7.2815534 0.365050226,7.2815534 0.365050226,7.2815534 C0.29569535,7.43932039 0.249458767,7.35436893 0.237899621,7.29368932 C0.0413941395,6.69902913 -0.0395198821,6.09223301 0.0182758476,5.47330097 C0.191663037,3.30097087 1.2897819,1.77184466 3.09300867,0.776699029 C3.47446049,0.57038835 3.87903059,0.400485437 4.2836007,0.279126214 L4.2836007,0.279126214 C4.96559031,0.0606796117 5.75161224,0.0121359223 6.16774149,0 C6.27177381,0 6.32956954,0.0970873786 6.27177381,0.182038835 C6.05215003,0.533980583 5.87876284,1.21359223 5.8672037,1.21359223 L5.8672037,1.21359223 C5.78628968,1.45631068 5.74005309,1.74757282 5.68225736,2.01456311 C5.67069822,2.03883495 5.67069822,2.08737864 5.65913907,2.11165049 C5.54354761,2.6092233 4.24892326,3.07038835 4.24892326,3.07038835 L5.46263359,2.99757282 C5.38171957,3.3131068 5.27768725,3.61650485 5.18521409,3.87135922 C5.18521409,3.88349515 5.18521409,3.88349515 5.17365494,3.89563107 C5.17365494,3.90776699 5.16209579,3.93203883 5.15053665,3.94417476 C4.73440739,5.01213592 4.26048241,5.58252427 4.21424583,5.63106796 C3.79811657,6.18932039 3.3010733,6.66262136 2.73467515,7.07524272 C2.31854589,7.37864078 1.8677392,7.64563107 1.4400508,7.92475728 C1.40537336,7.94902913 1.38225507,7.96116505 1.37069592,7.98543689 C1.35913678,8.00970874 1.34757763,8.02184466 1.33601849,8.0461165 L0.515319123,9.6723301 L1.46316909,9.57524272 C3.32419159,9.49029126 5.16209579,9.10194175 7,8.77427184 Z"/>
</svg>
