<svg xmlns="http://www.w3.org/2000/svg" xmlns:xlink="http://www.w3.org/1999/xlink" width="15" height="15"
     viewBox="0 0 15 15">
    <defs>
        <path id="a"
              d="M187.52 319.04l-.71-.24-2.75-.94a.71.71 0 0 0-.7.14l-.93.82a.68.68 0 0 1-.73.11 9.36 9.36 0 0 1-4.61-4.63.66.66 0 0 1 .09-.72l.82-.93a.71.71 0 0 0 .14-.7l-.93-2.75-.25-.72a.7.7 0 0 0-.63-.47 2.99 2.99 0 0 0-2.53 1.1l-.14.19-.08.1-.1.13-.09.15c-1.11 1.94.2 5.64 3.19 8.85l.37.39.07.06.06.07.38.36c3.23 2.99 6.92 4.32 8.86 3.19l.15-.09.13-.1.1-.07.19-.15a2.97 2.97 0 0 0 1.1-2.53.72.72 0 0 0-.2-.46.95.95 0 0 0-.27-.17z"/>
    </defs>
    <desc>Generated with Avocode.</desc>
    <g transform="translate(-173 -308)">
        <use fill="#fff" xlink:href="#a"/>
    </g>
</svg>